[LOGGED STATS] 
[Bytes 416] 
[Allocs 12801] 
[Deallos 12797] 

[MEMORY] 
[SIZE: 200] [ADDRESS: 0000023B4B2632A0] [FILE: c:\media\code\fxd\code\fxdengine\memory\allocator\tracked.h] [LINE: 49] [TYPE: (null)] 
[SIZE: 72] [ADDRESS: 0000023B4B28A410] [FILE: c:\media\code\fxd\code\fxdengine\memory\internal\source\new.cpp] [LINE: 12] [TYPE: (null)] 
[SIZE: 72] [ADDRESS: 0000023B4B28B090] [FILE: c:\media\code\fxd\code\fxdengine\memory\internal\source\new.cpp] [LINE: 12] [TYPE: (null)] 
[SIZE: 72] [ADDRESS: 0000023B4B28A3C0] [FILE: c:\media\code\fxd\code\fxdengine\memory\internal\source\new.cpp] [LINE: 12] [TYPE: (null)] 


[COUNTED STATS] 
[Bytes 416] 
[Blocks 4] 
